{
  "tags": {
    "allowUnknownTags": true,
    "dictionaries": [
      "jsdoc",
      "closure"
    ]
  },
  "plugins": [],
  "templates": {
    "cleverLinks": false,
    "monospaceLinks": false
  },
  "recurse": true
}
